[
    {
        "pk": 1,
        "model": "getstarted.step",
        "fields": {
            "description": "The admissions application is required for all students taking curriculum classes-classes that carry credit toward a degree, diploma, or credit certificate. The application will ask you for information such as your name, address, social security number, birth date, education history, etc. Once you complete the application, the admissions letter will be emailed to you and will include your Student ID Number (You will need that number when creating your CPCC login).",
            "studentType": [
                1
            ],
            "title": "Complete Admissions Aplication"
        }
    },
    {
        "pk": 2,
        "model": "getstarted.step",
        "fields": {
            "description": "You will be assigned a username and must create a password to complete your CPCC login. This login is required to access your personal information such as financial aid documentation, academic records and student email account. It is also required to log on to the computers at any CPCC campus. ",
            "studentType": [
                1,
                2
            ],
            "title": "Create Your CPCC Login"
        }
    },
    {
        "pk": 3,
        "model": "getstarted.step",
        "fields": {
            "description": "CPCC provides an official student email account to every student. This CPCC Google email is our official means of communicating with students and is used by Financial Aid, the Cashiering Office, instructors, advisors, for campus alerts and much more. Check your CPCC student email everyday.",
            "studentType": [
                1,
                2
            ],
            "title": "Login to your CPCC Student Email"
        }
    },
    {
        "pk": 4,
        "model": "getstarted.step",
        "fields": {
            "description": "We recommend that all students apply for financial aid. To begin the process, you need to go online and complete the Free Application for Federal Student Aid (FAFSA), which will determine your eligibility*. If you need additional information about the various types of student aid, please visit the CPCC <a target=\"_blank\" href=\"http://www.cpcc.edu/financial_aid\">Financial Aid</a> website. (Be sure to use the IRS Data Retrieval Tool when you get to the Financial Information page). Check your CPCC email throughtout the process.",
            "studentType": [
                1
            ],
            "title": "Complete FAFSA form"
        }
    },
    {
        "pk": 5,
        "model": "getstarted.step",
        "fields": {
            "description": "Unless you earned your high school diploma or GED from CPCC, you need to submit an official, sealed copy of your high school transcript to CPCC\u2019s Student Records. Contact Student Records at 704.330.6625. If you have taken college-level courses at another institution, you\u2019ll also need to submit an official copy of that transcript and complete the Transcript Evaluation Request. Some one-time visiting students can request a prerequisite override rather than having their transcript evaluated.",
            "studentType": [
                1
            ],
            "title": "Submit High School and External College Transcripts"
        }
    },
    {
        "pk": 6,
        "model": "getstarted.step",
        "fields": {
            "description": " First complete the ACCUPLACER practice tests, review videos and study guides, to help improve your test scores, which will determine your placement in English, reading and math. For students who do not place into college-level classes, you may be required to take developmental classes that are not a part of your degree. Preparation for this test is important as it could improve your chances of success and placement into college-level courses.\r\n\r\nACCUPLACER tests are now mandatory, but you may qualify for a waiver if you have high ACT or SAT scores, transfer credits in college-level English or Math, or ASSET, COMPASS, or ACCUPLACER scores from another institution.",
            "studentType": [
                1
            ],
            "title": "Take the ACCUPLACER Test"
        }
    },
    {
        "pk": 7,
        "model": "getstarted.step",
        "fields": {
            "description": "Orientation and Advising will take about three hours. Orientation is a 1 \u00bd-hour session that introduces you to CPCC and its many programs and services. During Advising, an academic advisor will review your placement test scores, program of interest and suggest courses for the upcoming term. You will also register for classes. At some campuses (starting with Central and Levine), Orientation and Advising will be separate sessions, and you may not be able to be advised on the same day as your Orientation. Both sessions are offered at all campuses throughout the year.",
            "studentType": [
                1,
                2
            ],
            "title": "Sign up and Attend an Orientation and Advising Session"
        }
    },
    {
        "pk": 8,
        "model": "getstarted.step",
        "fields": {
            "description": "You will learn how to register for your classes during Orientation or online or come to a campus for help. You are responsible for paying for your classes by the payment due date. If you are not receiving financial aid, or if you have a partial award or your award has not yet been processed, you will need to pay for your classes online through MyCollege or at the Cashiering Office. Check the status of your Financial Aid in MyCollege in the Financial Aid and Communication sections. Tuition is charged based on state residence. Please check your residency status before registering. For residency questions, please contact a registrar at any campus. Contact the Registration Office at 704.330.6006 if you need help or have questions.",
            "studentType": [
                1,
                2
            ],
            "title": "Register and Pay For Classes"
        }
    },
    {
        "pk": 9,
        "model": "getstarted.step",
        "fields": {
            "description": "We will mail your documents to you via U.S. Mail. Please allow 10 days for delivery. Contact International Programs and Services at 704.330.6838 if you need help or have questions. ",
            "studentType": [
                2
            ],
            "title": "Complete International Student Application"
        }
    },
    {
        "pk": 10,
        "model": "getstarted.step",
        "fields": {
            "description": "Contact International Programs and Services at 704.330.6838 if you need help or have questions. ",
            "studentType": [
                2
            ],
            "title": "Have a Vise Interview In Your Home Country"
        }
    },
    {
        "pk": 11,
        "model": "getstarted.step",
        "fields": {
            "description": "Be sure to arrive no later than the date on line #5 of your I-20. Contact International Programs and Services at 704.330.6838 if you need help or have questions. ",
            "studentType": [
                2
            ],
            "title": "Travel To The U.S."
        }
    },
    {
        "pk": 12,
        "model": "getstarted.step",
        "fields": {
            "description": "Upon your arrival, we will need to make copies of your student visa and stamped I-20. We will review immigration regulations with you at your check-in and provide appropriate testing permissions. Contact International Programs and Services at 704.330.6838 if you need help or have questions. ",
            "studentType": [
                2
            ],
            "title": "Check With International Programs and Services"
        }
    },
    {
        "pk": 13,
        "model": "getstarted.step",
        "fields": {
            "description": "For international transcripts, have the transcripts translated and evaluated through an agency recognized by NACES. Contact the Transcript Evaluation Office at 704.330.6815 or 704.330.6764 if you have questions concerning the transcript evaluation process.",
            "studentType": [
                2
            ],
            "title": "Submit College Transcripts"
        }
    },
    {
        "pk": 14,
        "model": "getstarted.step",
        "fields": {
            "description": " Your placement test will depend on your TOEFL scores and program of study.\r\n\r\nComplete the ACCUPLACER practice tests, review videos and study guides, to help improve your test scores, which will determine your placement in English, reading and math. For students who do not place into college-level classes, you may be required to take developmental classes that are not a part of your degree. Preparation for this test is important as it could improve your chances of success and placement into college-level courses.\r\n\r\nACCUPLACER tests are now mandatory, but you may qualify for a waiver if you have high ACT or SAT scores, transfer credits in college-level English or Math, or ASSET, COMPASS, or ACCUPLACER scores from another institution. ",
            "studentType": [
                2
            ],
            "title": "Take Appropriate Placement Tests"
        }
    }
]